011010110001001011101001011000010010010101001000011101011111001
110101111001000101000101010001010000000110101110110001111001100
111110110010011110011101001110011010010001001010101010000100000
101011111000111000111111011110111110011110111100111110111000100
011001001100100110011101010101110101001100010101011101110101000
100101001011100101000101010001101010000111100111110110100010101
000011101101111001001110111010110000010101100011011110100101111
001001110001010110011111001111110110111110011110100001001000110
100011110000110010000101101001000000001100110101011101100000000
010000010010101010011001011110100000110001110001000111100011110
001010000110110101010111110110110001111001000100000101101111110
001110111000110001001010011101011101101011111111101101100001000
111110001110000000011101010110111101101000101101010101010101101
111011101010111110001110101101011100110100000110011111000100101
101001010110011011110001101110100110110111100100101011101111110
001011011001100100101100111110111110000010101101001111111100011
011111100111110010010111111101000110100000010011001101010100110
111111110001001011101000101111010000000000110010000111010000111
010010011100110111010111110111111100011100000010101001001000011
100001001101111000110110000011010010001110111110111101101010110
101001101010100001111110011111110110111010111110111001111100001
001111000110101110101100011001011001111100001101010100110000001
001111010110110010110100100011111101011011101110101010011110001
000000111101010110100010101100100001000100100101001101111111100
011111100000001101101011000101010101100100000001101111011110011
110010111001100110101011000000001001000111101001110111010000000
001100001100110000011010010101001000011001100011010101001101000
010001000100011011010001101010011101000100011111111101010001011
101110100000001001101110111110010010000101111010000101010110010
101100010110111100010100000001110010010101101111011110010011011
010001110110110010011110110111101111101000010111100110111011000
111111011101010111001100111111111011000110110010100011110100011
011111011100100111001100010001100100001111010011010110111111110
100100110011000001111010101101111010001111000010000111000000100
001010000001010011110011011010010000111110101111101101110100110
000110010000001110010000110110110001001010110110101001111100111
010101110101001001101110011111110111010101100000100110000111011
110011110101110110000001001010101011010001110000110111100001000
000001110011110101001011010001110111100110110010011101110011011
000101001110101001101011100101000101111001111010010010110111101
000111001010110101101011010110110010110111011010010111010111111
010000100100101100001101010011100001001101110011011010111101101
100111101000110001101010101101001111000110001011010111010100010
000110100011010000011100011011100111010001001001111011110110001
000000010011100111100000101000111001011110111100111000010001110
011000101011110001010010010110011110010010111110101100100001001
001000100111011001011010110111011100110110101011011001110100110
100100000010001001111000101010011101011001001010101111011111010
111011011100101100011010011001110001011101110110100000110110010
001000111010000100001000010111100000010001010101101010101111101
110100000011100011000010011100100000000101010111000001100101001
000001101111101101110010101011011000110101111000000001010001101
011100101011000100100110010110011000101010011011000100000001101
111100011111000001001100100001110101110110010101001000011001110
011111101011011010000011001111001010011111000100101010110110100
000101111000010111011010001101110101110100110001100011100111110
111001111010011010101100011101110101011100011111110100101101101
111011111110100101100111011001001000101101001110000100001110110
011111101011000011001010011011100010111110011101110101101110010
110111000110001000010101000101111110000111000100110111001111101
001001101011100001000110001000000111100011011011001111101111010
000011001100111110101000101100011011111010101110101101101101100
111101010001110001110110000001000011010101001111001001100000010
001111000010100111101011100100010010000001110111001011101000011
110111001011010101101010001110111111011011101011011111001111100
101111101001101110010110100001010010100010111000101100011101111
110000000111001110011111011000100000110100111101010100100010110
101010011110101000100111101000100000111010101000110110111000010
101111100000111100000100000111100100011001111010100111101011110
000010110100010000100000100100100010001110010001011110111001010
111100101001011100110101010011111010010011100100011010000011101
110101001001100100101000000000100001000010000001011000101101001
011000001010110000000110011110100100101111010000001001100110011
001100101001111110100100110010100011100100011011011100001101111
000111010011011001001001010101010100011010000011111110011010000
011100011100001101110110101011001011011001001001100000001000011
110111010101110100000010001101000010000111010101100100010100001
110010010011111001100101110000111011100110101011001110111111111
111001000111000100111101100110010111101111001101111110000010101
101010010100010000111000010100011000000010100100100100111000010
010010000110111011100000000011010100010010111111111100101011001
011101011110000011011010001100010000011100111111110010100110110
000000010101011100010100101011001101111001111010110101101101111
010001100101111100111010110100011000000011010101001001000111100
100110000101000110111011011111000001100001011110100000001000000
010011000101110010000111010110000111001010010001000101111101001
000000110010000011001010110011011010110010000001111111100011111
101100000001011010000111000000010111011000111111011011101000001
111011001000001101110110111100000100010011001101111110000110000
011000000010111101000100100000000000111111010011111111000001011
010110110001100010111101000111001110111101011111011101100111001
111011101110110111000100110101001000101001110101010000101011101
010100010110101110101010000010000010100011010010000010010010110
110010110111110101011010100101011000110001101000011111011001011
000111110111000111011100101110010010000111100110101011010000011
100101100111001011001110010001011110000100100010111010010100010
001010110111110011000010000111110010001110010001000111100011000
000111001101110100110110101100010100010001000001100110110111110
011010001000100001111110000111010010101010001101010111011111000
100011000011111001100000010101000111000101001001111000100101101
111101100100000110001111110001000111001101100100010100111110000
111100010001101111001001001001100011100111100111010100000001110
000110011110100001111100000110000010010011101111101101100100000
101111000101111000111101100001011011010010000010000101101000111
101001110001000010111011110100110100010010110100001000001010011
100001011111010000100000110000110101101100000100111001101101001
101110010110100000101101101001010000011101000110001101011001101
010001111000011000010100100101000000010110000100110000000010000
011110010110001000000100110010001101000001100011011110001101110
110011001010101011100110101000011111011001010111100101010100100
111001001011010001001001011110110100010010101101101110000000011
010011101101110111000100110110101011100000000011001010111010011
010001010000011011111110011110000000110100001110100101100100001
010111111010111000100000111001110000101100101110100110010111110
011011100101110101010101011101001100101111010111011011000001100
101111011000011111001111011011110001011111000100110000110000011
101101011100000011110010000010100110110010000110110111111011101
111011010101000011000001011100100001111001111111100000010100111
001100000001001110110011010110010101011111110001001101101000000
101000011001011000110111011100111001001010111110110011111111101
111010001111110100111101000000111101000011101000111000010010110
110110110111011001010011101110011001111100110101000000010110111
100111010100110100101001100110110100101100111000001110000101001
111110010010011111011000010001011110001010110010011111101010111
001011000110111110110101000101100011100011011100011100011011001
101111111000101001010101010111111101101011111010100110100010111
000010101110110110000100100100010010111000000000100011111100111
000111010100010011111000001001101101100001000101111011110010111
001100000010010000101111101010101100110110001101100101001001101
111101000010001100011101100001010001110111000100001100110101110
111100000000000001011001100011011010010011100000100001000000011
111101010000001100011111001001010111000110011111010110010000100
010101000100001001110100000001101101101110100111001101001111000
100111111001110001101101001000100000111000010010110101111000011
111111101100100101010001000111001000010001111010101010001010100
110010100000000001000000100100001101110010110100100101010110110
101110010000100010110000011110101000100111100000011100001111010
100011110101111101111011011100110001111010101101001100100100100
000000101100011001110011001101000110101101001101111111101000001
010010000011100000100011011101000010111010011011111101011001101
011011100000111101000011110000010100000100110101111101110111010
011001011111110100110001011010100010101111010110100101110010111
110010010110011001101011001100000100001001100010101101111010100
100101010000000100001111100111011110011111100011010010010110011
000010100100100111101100011011010010110101000001011111011010110
000010110111101001000000100001100010011101010000001111110110111
111010100111100000100111101000000101110010111110010100000001101
101111010110111101010000101001111011101010000000100100011111011
011011110011011111100000010001010111001100110011011000100100011
101111110100101111001111100011010110101100001010110111100110111
010101101111010110001010010110001110001010100001001001110100010
101010100010000111100010111110011011011011111111101100000111101
100100011101100011011011101101001110101111111101000010001010010
010000000011110100111010100100001010000001001011000010000111110
001001011010111000101111001111101100111100111001010110111000101
111101011011011011110101000101001010100111000100101111100001101
110111100000001111011100010110100011101100011100111010010111101
000111111101010111100000011110000110000000011001001100000100000
101100101101111000110011011011000000111110000010011011100000011
111111101110110011001101010101011010001000011001001110101111000
111001101011111110111101001101001001000001100110100100101001010
110111111011011110100010101100101011100100111010001011101010111
100001110100111110101001011001011101011110101111111010011001101
110101011011001110101101001000000010000111001010000101100011011
001100100010011100010101010100110101100011011001111010110010000
110011100000011100101100111010010100010100000100111110011011011
101110110011001101100001001110011001000101010001001001000000011
010000000011110000101111010001011010000011001011100000000011010
110001010111100001100100111011111111101100111101110101100110100
100010010100000011000101000001110001001111111011000110001111000
000011000000011110101001001101010101000001000001100001001001111
001110001110000010001110011010011000010000010111010111000111110
001111011001110110111111011010101010001010101101110110010011101
010011010000001101010101101010110000011010101011100111101111111
111100100010110110001101111010110110000010110101110000000111010
001000011100101010001011110011110001111001111001000111101111101
011101001011001000010011000101000000111101001000110101001110001
111001001110101110110001011001100101000001011111000100000111101
000011011001110101101000101000001010010010110000100101110100001
010010011111110011101001100110110101101110110111001010000000111
111100000011011010101010110110101000100111100000001010001111110
110111000101010100001110100001001010011110001001100001110111001
010010000000110101111001110000100001111110001111001011100001101
100001010011001010101000101010011011100010111101111101101101110
010110011111001111101001000011011110011011111110101110110010100
101101110010101001011100100101110110001110111101110001001101111
110101111010001110010001101111100000000100011100110011111011101
000000101100011111000110101000000111111111001110000100011101110
000001101101110001101100101011101100100001110011101000110001000
100011101000100001010001010010010110010111010110101100111111001
011100000111100011100011011110000110010011100001100100101100111
110010011000001001010111001101000101111111100100110100101101011
000001110110011000110111000001011010111001001011011110000000100
110101100111011100010100101000001011010001111100111111000110100
010011000001010010101110100010101001111011001100001010010010110
111010000000100100000010100111001110110111111001010111111001101
001110110001000011011010111000010100001101110110101000100110100
000011100111111101110001011111111010101101111011011110010111110
100001101111000001001001000000110110111010101001010111001100111
011001110010111100110000011111010001101010110001100011101010000
101001000110000101000111100001010100101011000110010110000100110
110101110110110110011000111001010111010100011011010000010000100
100100110010110100100110110011111000001100000010001100100001000
000001111010101000110011101000100111111001011010010101011000011
110001111011001001001001111011110011110100100001111110011011010
010011011000101000010000110111001000001011110010100101100110100
010111101110110010101001101101100000010100001100011100111101000
100001100110110000110011100110100011000010101001001110111100101
000011100111110101010100100100001110000110001101111100100010101
100000111100000011110111010011101001011000110100111010111001101
101000001001101110000100110010100100011101001011100101110111011
000101100110110000110010111010011011001000010000111001010101001
101100010111101011010111111101010101110011110111111111100010000
101011000010010110101011001110100100010010111111101011010010010
001000111101100011000010110111001110000011011111011100110001100
101011011110001111100001000001011111011011011011110111110100000
010100001111110001101010011111110111010111000011001111000100011
111110101010001100100100000010010101010101110110100001000111110
111111011010011100010111010100000001101010111110011101000101110
010101110010011010001010101001100101111110011001111101000101000
111000100010011111100010111011010101000101011000101110001111011
111101110001000110011100111101110001011001001011101001101001111
001101010111101110101011010001101100101100110011001111110111011
000010110000100010011101011100110111111011100111000101100011010
001001111100100100111001111110111100011111000010010101100111000
111100000000000110110011000001101011100110001011110111101110000
101100111000101000110011000010111001101101100110000111001011100
011000100111111100011110101010101000000110111011011000111000111
000011110100111100001010001001001011100001110000111001100010110
100000111000001100000100001000001111000100111000110110111110000
111011100001010001011110110110110100110101100100100000011111111
001011111001001110001110101101001101111000010010010110000010110
111001011010111101000001110110001111011010100100010101011110110
011001001010111000110101000010101110010000000100111000000110110
100110011101111110101000011010101000000100100010110111110001100
000111011001111110000111000101000001001010001101001001000100001
010010111110111001000010000111010000110110101011000000100010101
010101111100111100010011111111100111110011001001001110101011001
110010111001010101110100110011111000011100101000111000010110011
101000001001001010011100100100100111010100000110010100001100111
000001010001100001000100010010100001011001111111101110000100100
001100000100110010000110010000111001110110000011100111100101010
001110011000101011001001000000010100110100111100001000010011000
101100010010100011000001011100010110110000110000100111100100100
010111100110010111100001111000101111111111101010101011110111100
100011010001100000000001011001010001011110011001101101111011001
010011101101011100101110000001100111100101000101111011111010111
110101101101111111101000000010011000100010010000011100000010000
001001001110011010001000010100110010001100001101001110110111110
010100011111110011000100111010110100000100011111001011101010111
001010101110100010011010111110111100010110100111011100110110110
000110101000000001011111001010001100100101011011101100100010001
111011000001101101101101001111111010001001110011000100100000011
100010110110100100100011100111000101100010110101101001010011010
001101001110101101000010011010101111100011110000011010100001100
011010111011111110100110101111101110100111001001111111101001001
111011100010110000001010100100100001110100001100110010110100001
101001100100101010100111010100011001111011001101001011001011111
010110011000111101101011010011111010010110010101010001100001001
000010111011100011000111001000001010011000111100100000101110011
101100010010100001111000100101011100010111110100100001101110101
100011001111110000010110110101010111111011001010000111010000010
000110101000110010000101011110101100011100001000001000000110010
110011111111100100110111110110011010010011001000010110111011011
101010010010011001000110111011010101010010111100000100111101001
110001000100010111001000010101110110001110001011011111001111010
100010010010100001001011111100111001011010111101100011011101001
001010100111000001100111011111000001111110101111000001000000101
111001011001001000010010110111010000000111101001011000110000111
001100111000010110110111010011010000001010011011101100011000000
001101111111101010100000110100011100011000100011101100000000101
011101000000111100101101010110010010111100011010100001000011101
111000100110111100010100000000000101001101011010011011100011111
111011010111111111100101000110000000011000000111010110010110101
100101110110110111110010101100000101010011000000001101000010000
010100001011100100101001001101011010110010000001111000100111001
010000101100010100100101111101010000010011110000011110011100001
011101010101000010001000001000011110111110111000111011110000000
000111111110011100010011011100010001001110000100000011001011001
000010100001001110111001001001100001101100011001010100001101101
100011010101101001111000100011010101111111001011111011010100001
100011100111010000111101111100010000001110000101110101010111001
110111001111100111010110111110101000111000001011000110111101100
000101100111001001010011000110001011000101011010101000101101001
011101100110111111110001000111010111101100000111110001100110011
111001000100100110000010010100111000011000100010010010101011011
110001111101000010101110010011011011110100101110000010000010011
111011001110011110001100111111101110011010000000000010111111010
001011110001011001001101110001000001101000110100100000010010000
111111110111101110000111111000011110100110110110001110110010100
011111111001000111001010100010000011010111100011101010100101111
011101010111111101011000000000000000101001100011010101011001100
100110111010101001101101011001000110000111100101000010000111111
011011101101110000010111010100101010001111101100011101000001011
000001100110011111100000011001101000100010101010001010101001101
100100000010100001010000100100011101100110011000101101000010101
011010110011101001111100101110000011101100011011111101001101010
011011111001101001110010010001011111110010010000110100011010011
110000011111101111010011010000111100011101101001000001101111001
100000100011001101100111110011011010000110000010010010001101010
011000100100001001110100111000010000011011010011011001101101111
011110001011010010001101111100011101100101111100001101010001001
001000010100001111100001100111011010000111000111011110110110100
100110100000010001111101000000011110111100111010100001011010101
111110100101100011001100110101101000110101101001101100101000100
100100000111011100101111100000011111111000010111101001001001011
110110001101110011000110011001000111110010100010011000110000100
011011000101101000111101001000110111010110011110011011010111010
101101100110111111000001001100110111101000011001110010010111011
110101001100101100101001100001000111001000011111100101011000010
110010010000101100111011000011100010000100001011010000100111110
110010011101000110010000100111010010101011100001001010100110111
100110110100100111010010110101010111100001011110010000011101101
111011001101101001101110100111001111101110110010111101111001110
110000000011001100011110111110000010011001011100010111010110011
000100011110111011001100000111011110100010111010001110101110110
101000010001011011001001000010111010001010011001101010010100111
101101110100100100101101011010010111101000000010101110010000101
100111101101011101111111101110101001101101101001010100100101100
101001111110001000001110000101011101111111111110100110111010010
110101110010000000110110000100101100110100000011101011101110011
001011111100001000101000010111010000100010001001000000110011011
010100110100011011000101100100110101110011000101100100111001011
110010111011011010000100000010001010001001101111101011000111001
101011011000001110101110110010011100000011111111101111100011010
010011101011100001011100101111010100010110111101100011110000011
101101001100010010100110101100100111000110000011100011010001001
111111111010001011010001000110010101101100110010001110110110001
001010110001111111101110010010000110011011111100110010111101100
001000101100011111110000111111111010000001111100001100011110001
001010100011011011010010011111000100000000011001000010001111101
000000001110010111001001100000001001010101011111001100001111011
110101100100110000011000101001001011010110000111011011011000100
010001001111000111011010011010101100111000011110011001101010000
001001011011000010000110100100011001101100101110110010100101010
100110011000011011110011000101011011110000000010110011001001001
110100110001100100110110001001001110101111100011010000010111101
010001000011010110000010110000111001110011110010010110001011011
110111100001100011111110011010110101111101100010001101000100001
000010011001000101001001100101111011010101101000110011001000001
001110000101100111000101111111111010111000000010110110111011000
011101000000101101101010110000100110001011000100100000101110000
011101000001101001101101101111111011011100011111110100111000000
111111101011111000010101010111110000100100011111101110101010101
110100000001111101001110001010001000000111010001010000010011110
001100011100011011110101101110001100111010101101011011000100001
111111100110111111000111001001101110011110100010000010100111111
001110001100010010100110111000011110111111110111001001011001001
000011011110010011011001101110010000001100000111011011110001001
001000011100111011100111110000010001001001111001001010000010110
010101001001101011101001010110111100111011010101101000000101110
110101011110110100011000010111000001000001101010100000010011000
100010101111011001010010000010001011101111110001001111101110011
100000111101010111100001101000101101000011110011100011101110110
101000111001001000101100011110001110001110101111101001000000100
101100101100111000010001110100011110000001010001100111100100000
101100010101000111010101111001010010010110110110011100010010000
001011111101000011001011111011000000001110110110101110000100110
011011010000101110001101000011111001000111101101111010010000000
110011101101010010110111100000010101110001010111111101101001111
111111010101111110111011000110110001101001100110011110010110101
010111011111001000100010101100101001100100000001000111100100101
101000110100001011000001011101000010100100011111101000101110000
111100010111011101101101111100011011011001010111110011000101101
100010001101000111010101000100011100000101001101110001101101011
001100100110101010111010010111010010010000110110110011011110100
101110001010100000010011111000010010100010101001110110111010001
111101010011000111001010011001010111100110110111011100100111111
110101000010001110110111000110011111111111100111101000111001011
110101101001011011110111110000111110110110101010000001011111111
111100100110110010001011001010101100110111010010101010110110111
001000110001101011100101011010011101001101000100100101101010100
110000011100110001101010100100110000100100100001111111010010010
100111011001111001100100100011110100111010011011110000001011000
001010000001101100101001111101101111111000011111101010010100101
111011011101110011000101100000111101001001110101001100011101111
111010110010100111011101111000010101011100111000110010101011111
111111011111011101110101110110011001010101111001011010101011000
011111011000111111000001000111010101011011110100000111011110010
010011101100010011100110001100111011010110110000001110100000100
000001001000011011001011001111010011101000111000000110101110010
100010001001111100001111001111101101000100000000000000010101110
110001010100010001100101101101110010000001100110101100001111010
110010101111111001010000111001100110010000101101001011101010111
010101001001110101010001101000110100100110101011100001100100000
001110111001001000101000010101111001100011011010010011011101000
011101111110110101111010101110011100101010100111110000100111100
011011101011111111000010000010100010000110110101101101110000010
101100000000010001000110000001100110101011011100100100100011001
011111010000111001000101100101010001011111101111010100001110001
100101010011000010010011010001111000110101000101100010110010111
110111001111011101001110100100110111010011110111001011011001101
110000001010100010011100111101010000000010101110110100001110110
100011110001101000111111110000000001001110000010000100101101001
010011100111010101101111111010111001110111111111100001001100000
100010111001000001000000100001101011101010111101100110111000110
100010000001100110100101101101010110110000100111000100011011000
110110011011110100111000010111011100000110101110011100001101010
110011110111111111011101011101100000010111000010100010010110100
111111100110100110110011011111001101110101001101101101111000000
000110111101111111010111011000100000000011111100100101001011010
110000100001001000110001111100100001000111011011111010111100010
111001010001111100100001011011100011101001001101010000100100011
100001001001101101111010101111101011110011011000010001010111000
111101111100000110110111101101101111111001010111110100100001010
110100011110010101000010100110100101000100101001100111000111010
010010000001101110111100101100110111111001001011010111011100011
001101111010110001101000000001010111100110101111111001001100110
100011110100000011000010001110111101010100111010000001100011011
101110100001111111001010011000101011010111101001011011010001110
110101010001111000000110000111011011111010101110010000000000001
100100101100111110001001011000000011001000011011110011010000000
110001011001000011001101001110000010011101100110110111010001101
111110110101101101010100101110101001110011000110000110011111101
110100001101111000111111010111100010011011011001011001110011010
010100000001110111010110011010100010000101100110111110000101001
001111000010010001011010010001011101111011100110110000010110101
110011100010111101111000000010000100000110001011110001101110011
001010101111011101011101000110011000011100100000100011000011100
000011000010100110000100110010011100101110001001101010100011001
001010111010000101111100011001101111111101000111000101100010010
000001111011101011000001010011100100000011100100010111010100000
011101101101110001100000010100110100111000100111101101111001101
111001010011100010111110010000000100100111101111001100110000000
101011010101100111001100101011111010010101100111000010111001110
101101001110101010001111101000111000110101010000010010100110101
100101100100100010011000111111110001111110011010111000000000111
111011010010001011001010110101101101010100100100010000011010000
101100100101010001101101011110110100001000000010101110001111101
101000010011010110001010011110010001000110001011101111110000011
111010111110000010011100011000011101011000011010110110011100001
001101001110000111110010000000001000111010100110111110101000011
010000111011101100110010011000011010011011000100010101101100101
110011001100110110100100001001111001001111110000001010100000000
100010110001110110101110010010111110011110011111101101100010101
001100100011001101111010111111101110110010010110010010010111101
111110011001110110001011010101111011011001010110110100011110001
001111001101110110001000001000111100001000111011101010110011010
100011111001111001010000010111110001100001000110010110001001000
001001011011000111111010100100011111001100101101110010011101101
110101010101001111000110000001111011010001111011101010001111111
000100010100111110110100000011101010011011110101111110000110000
100100111011100100100110000000101100110111010100101110010001101
111011001010101001101100111011001000111001110110001110011000011
111001011100111000000011110011110111011010011000000101111100110
011111110100010110010000110000011011100011000010111111100011011
010110011101010000111110001011110110101000001010101101100101101
011011001000011000010011011001011010010100011100101011100111100
001101100001001010011111000110101011010001011111001100100010000
010001000011110011001001100011011111001000001101000010100010111
001110100000001100001000101101110110111110000100001111001100001
011100000010011011100101001100011011010011110101000111101110101
000010101111100110010111011000011100110100001101001011010100100
100110011101010010001101111110111001010000111110010101111111010
100010010011001111100100010111110011000111110001000010100111101
110010101011100010100110010101000100010000111101011111010011101
110111010110110011111110111001001001011000011101100011100011010
000101110110110100101110001011001100011011100100111011110110010
010110001110000101010000111101110000011001010000011110101110011
101010111010011100111100110100001000100101011101110101010011111
001111110011000001000100011111001011001110011100000101111000011
100110000100010101111110101001101101001000110100000011101100010
010111001110110000010001011001110100010000000100011110000110101
110100001111110011101010001011011110000110111011010111010100111
001011110000011010010011100101110001010101100000111000011010011
001001011000111110111010000001001110101100101011110010110101100
111111100110100001100000110011010000110010001011001001101001110
011011010101010111100110100010111011001011011000111101101000010
000000110110010110011011110000010011100100110001111010010011110
001110011000111100010110101111110111000111100010110001100000011
011011110010100011000011001011001100010101011011000100000010010
110100010110100000110101001001010110010110110000011101100010110
010010110101111111111100111001111111010001110110011001001010001
101010010010010011110101010011100011000100101011100001001010011
001111001100001100010011100000010111111010111011011100010101100
101111000100001111011110111111100010001001000001111000100011000
110101001011001011101001001010110100110100000000110110101001000
011111101011111111111001100010100011110001011001100100111101010
100110100011010110101011011111001001010101100110010110001011000
000011011000101111101111101001011011000001011001100001110101000
111101100101100001001001011100010110110001110010111110000100000
011110010010001011001001001011101011101000010000100101110001010
010100101110010011101111101111010011100001001110000000100101001
100111001010101110010011111111010001001101101110100011110100001
110010011101101000001001101111101110011010010010001010100001001
100010110010000100001100011111111010100100010000011011111000101
101110011010011101010001100000010110111110100110001011010010010
111111001101101100011010001101011001111000010011000010010011011
010111000111111101000010100100000011101001000111111001101111110
100101101001100011011111001001101100010101011111001000001111000
000000100011001111010100000001011100110100110011011010110011100
111100001011000000011010010110001110011010101001001011010111100
111111001101000011010100110100001011100110100101101001110111111
101110111100011011110001111111011001000000000100101100100111001
001010010110011011000001010001011010000010001000011110001110010
011110101110110101111100110001011001011010000100110010100111110
101101010110000110101010111101101010001011101111010101011101101
011111101011011111111110001010001101111010111110011101010100010
101110000001011110111010011010111001111101100000111001101010110
001110000111001010000101011100001100101101111001010110101111100
010101000101100011000100010010000011000010010011000001100000100
110010010101101110100010101110001011101011010101101011111010111
001000100101100101001100101110101111100001011000011111100000110
011010011010001001010110100010000011100000100100000101101001010
001010000000111000010011110101011011000010100000000100100100101
111011010110111001100111110000011101011000111011011101000100010
000111000011001000011100011010111100110101100100110100100111101
000100110110101000001000111110000111101100000101001111101110100
001000111101011001101101011110101101011111101001001011011011001
000100000010100110110110011101100000011110111001110100111110111
111101011111111001000101011100011010001110010011001010011110111
101101001110001101000110001101010001111011011000011000110100110
111110100011010010100110001100110000110101101100001010101010111
010010011000101001111011011010010111000101011110010101101010011
110010111010000110110101010000110001101001110110011001111011110
101101000010111111001000100110000110001111101011101100001110111
011110001000101101100110000101100110101111110101110101111011100
010011010101001111100001001001001111010010110100000011011101110
001101001000111001011100110110010010111001101000011111011100100
111001110101010001001110001100101100110101110101100111001110010
000110111000110111100001001000010110001111011100010100100001011
110001100111001011111001010000110000110111110000100100101110010
110111000010101101111000001010100101100010000000100011010001110
010101001011110100011001010000001101110011001000011010011001000
101010000000101110101101001010011010001011100000110111010011000
100011010011000110101011111000100110110011001011011001111111110
001001001001000110100101011010011011101011000100101111111010001
101000010110000100011101011011110110100111101010001010001101100
000110110011011001010110111010110010101111111000111001011011111
010001000010110111110101001100100100011010110001110100111011000
000100010101101101000000001010000101100101000011010000011010011
001101000010100100001010011011100001001111101101000111111110111
101110101000000101010101100010111000010001001101000001111000111
000000111011010111011111001111111011011100101111011010000000111
001000101101110100010010110100110011101001101010110101001010011
111001111101111100100101111010011110011000000101111011111110111
101110111010000000111111000110101000101101110110110101011110100
011111101001111010011110011100010111001011001110111111100111001
000111110101010110101100100100101000110010011111001011011010111
011011100110101000010111101110100010000000110101110110100000110
100000111101011011000101101001100100110101001000111111000010000
010110100101101011110111110000100011011010100100101011110000111
011110111110010100010001011111110011001001010101110111101100010
001010100110101001100011110010010001011110100111001111010011001
101011000001110011001010000010000101110010110000001100111100000
101110110011111110001101001011101111011000011001010011111001101
111001101110111001000110110011001011110011101111001100100010110
100010001000110101001110001001111111101111001010101101101001011
100001000001111001101011001101000100111110011000110101101100010
011100000011011011001000010010101011101010000001111110001011100
010010010010011010010011010111010010101101011000101100100101001
101111010001101110110101001110000010100100111111101100100001001
111001010100000010111101011100101101111110010000010000100101101
110001000000101010011100110011000011011101000101000111111001101
010100001011011110001001011110111000010011110110101100101000011
010001001001110011111100001100110110101011110010101101110101010
011101001110011010000101110110101011010111111100101101100010000
111101110110101000110011110101001111111001000100010001111011011
111100101011010010100010001101101011110010001011001111110110001
101110000000011100111011010110111011001010111110110101010000110
100010001011011000100101110010100011110111011001010001001010011
100111101111010001000111011111111101111001101101110011000110001
001111101000101110101001001110011001101101101011101000010001111
010110101100101010001110101111100100111101110101110100000101011
101001110110100100110111101110110111011000010100101101000011001
100001011010111001001110111110010001000000001001000111100100001
011010010000011111110111001000011011001101100001000001000001011
011111000001110110000110011100100001110110010001100001101101010
000110100011001000010101110010100110011000111110111011011111101
001001100001010010100101101011000011010010100000000111001011000
001000010100010001111000101110110001100101100000110001001011000
111101100110001101111001001111011100100110110100000110110010001
110010001001110010011001110110110111000101110100000000111011110
010010011011011111100000000101011110101000010111101111100101100
001110100011000111111101001110000110101010010110101000100100101
100001101110001010100001010000100001011101011111010110001010110
011100101000000001011001000001101000010001111111100100011110101
101111000111111001110001001001110110000010011111011010011101111
000010100101101110010101011101000111000001001110000010001100111
100101110010010010100100101010110001110001001111101000001100101
000111000010100010011101000100110100110111101011001010101011000
001110101100100110110110010011101110010000001010101100000011100
011100001101011011011110101100100100000011111000001111011101100
000011010010101101101000101100100000111010101000110111001111011
110111010101101100111100010001010010111011100111110100110111110
001001101100110111100011111001101101110011010001000001000111001
101111100011100100111111000111001001111001011010001111100011100
100100100000111000100110111110010100101000101001101111111111110
001101011000010100110110011011010001110110010010110010001001001
111001000100110010011001000110001000111010110011000000001010101
101011001010010010000101011101011001101111000000000111101011011
011110101001001110010100011010000011011100100000000000100010110
110010010001111101101010101111011101100111000000101111000001101
001110010100001101010011011010100110001000100110000100100001100
001000010010100000000111100110110101110111001010011100001011100
001110010011110011110010000101001111100101000000001111111111110
011111110110100011101000000011001010011001000101100001111101111
001010101010000000101011001111001100000100110000111000001011101
101000101110001111001000110001001001000111000011111100001010011
110110110110110110100100111011100000011100000011000001110100001
001000001101100100110010100100011001001010110001101000110011001
000110110111000110001110110100100101110010010010100011110100110
111100010010101110101011100001111000011111101101111100011011001
100111110001001101111001111100001000111000000000010001100111111
001101111011100100000100010110100000111101110110011011101111101
011111001011010110000000110011000110110100000100100100010000100
001001111000010010111111001010011111001001011100110010110111001
100101010011100001010010000010100011101001000000100011000001100
000100101001001000100000111100100101001000100110001011101110111
010110110110001111011011101111100110100100101110111010011011101
011101101010111101110010101001001110110110111000111011011011010
101111101000111101111000101001110010011011100001011101111101111
100010111110000000110100001011001111111010010100100010111000101
110011110100000100101011100110000101101110000110001001011010010
111001001001001101000110011011100111011010100011000011100010010
000101111100011100101000101100010011100111111111100110110001101
000000110010101110101110001101100100010001101011101011100100010
101011001010001111101101110001110111001010011110110101100110000
011000101001100000111010001111101101100101001110111110101000011
001101000101100101111000100000111111111100100011000100101010001
100011010101000111100001100010100110101010111110101011110111000
101111101111010101000010101000110010000000101101100011000101001
101111011100000111010000101001010110101110111011010011111111100
101011001000111111001110010100001001000110110101001111110011001
000100110001001100101001101011111110001000010011001011000111111
110110101111010100100101100101010010101100011110000011110000110
000001011001010001101000101001101111011001101001100001101100010
100111011010011111010010001010111100110111111110000001100001011
011000110011101011011011010001011101011000011100100001011000001
101101011100001011000010110001111100010100001101111110110010110
100111001110001101110110000001010111101110101011111011110100000
000110100000010111100111100011111111010010111111011010001010100
100001011101100000111100011110100111011100010100010100010001011
010010111101101000101100101111000100110110010111100100101111001
011011000100001100011001011011101110010111111111010101111011011
101111010110100011110100011011001101000001110101001111101100001
011011001001011001111111001110001001110110101010001101110010010
011010010100111110111110101111111101100100011111011100010001001
101010110000110101011001100001101011101111001001101111100111110
001010101010110011010001000001001010101100010001010011001000010
011010000110101000111011000001101111101011001001010010000001011
011101100010111000100100011101100110011110100110110011100011011
001110000101110110001110001101101100101010111011011011001000111
111010110101101010000100111000110101100111011001011101000101001
011101011101101010111110000001100101100111010010101000001101000
111011101010111100010101000010100000100110001000010100110111000
001001100101101010011100000001000110101001100101010111011111010
110001101000111000110001011000010111000110000110000011101101111
000101001101101000101000110110000101000111111000111001001111101
011000001110101110001010010110110110100110011101000111111000001
111111001100100001100010001001011110101000010100100010010111111
011100010000111111010001101011010111110000010011111001110101001
110010111000000011001000010111101110000100010000100100111001000
101000000001010000101100101111101100100011010001111011100001001
010011100000010100011000000110110001110000010101110110101010100
110100111000011111101001000011100001110000000101000110010100111
101111011110011101110101011111011100110000111001101001001011100
100010011000011001011110110010100000011100000110011011010101010
011010010101111000000111001001010000010110110100100000111110001
100010010111100101001000100100101000110101101111000100000001100
000110111101011010011001111000010100001111101100110010010010000
110101110111011100010111101101111011011101010111010000011111101
010011000111100111000101000111101111110111110101100100101001010
101101110110100101101010100001000011100011010101001001001110100
101100100110001111110001010010111001100001001100110001111010011
001111101100100000101000100111011011110100101000111011100101111
110111100010100010111100001110101010110010000111011000000000000
000001100011111110011000101111011101100000111111101111100011100
110100101101110110001110010110001011110010100011111111111110111
101110101100101101111001000101011101011111101111001011110100111
000101101011011010111111101111100101111001000000011001101111010
011110101001001011010100110000101001111010100100101101011101100
100000101100000011010100110001101101000000010000001001010111001
000001011110011001001010100111110101010001011101100111000011001
101001101011011010001000111000010001111101001000110101110100110
010101100100011001100011110111110011001010101110100110001100000
101011011010001100111000010100111010010001000110110100100110001
111011011100010110100010011010001011111111111010010010001010111
110010001101100101001011100010001011111011001000001011111011010
001111101000010101000101001011010010000011000110011111000001111
011000101001011100111100100101101101101101111010101110111111110
001111111101000100010010101100101100010000111101011000100011111
000101100110110011100110010011010011010110101100100001011010010
100001010010111010011010000011100011110000111000111011110100100
100001101111100111101011111100000010011000010010100010101110100
000101010110011110001010011110000001111100010101001111101110111
011010111110111110010000101100100011101000101011100101111010100
010000111100110100111111101110101000011010011111001100110000001
001011111101110101011100010110011100100000110000110011010100011
111101111011111001010000010110011000001011001000111111101001110
011100011011110101001000010101011100111011010001010101001110111
010111011000101001101100000010101011001101011000000011010011111
101001101011010000101101111111001101100101011001111010010101010
010101010101001011001000100011010101110100111011010001011100111
010101000111001111110000000010000100011100000001000011001111011
000111001010101000110010011111110011110100011111110000000101001
000010110011111110010011111010000110101001100011110001110100101
100101100000111011111100010001000100101110001011100010110001101
100010010000000100110000000001001001111111001101100001011110010
001010110001111111010000011001011111001011111100110110010100101
001001110011000000100000010100111011001010011101011011001011101
011011101111001101111011101110011000111110010011100010000111001
101001100010110011100100000111100111011110000011110010011100101
111001010101101100100011010000010000100010111111000001100010100
100011011011000110111110010101101001001011110111010010110101001
011100100010110001100111010111000000111100010000111011010010000
010100001110110010000100111110001111110001101010010101100100100
011011110000010101011100000011110101111100001011011010010001101
011001001001011010111111000100000010110001010101000000100010001
000100011110001111011011011001110011010011010011111111001011011
010001000110011010100101010111011011000111101000000111010011001
111111101110110101011111000101100100000010000100100010100001110
000010110100110101011011111010101100110010000101000001111000111
001101010011111001100011101011100101100010101010101101101101001
101011010101110110111001100010001000110011100001011111110101011
110110011110000111101101111010000101101100101000111101010000101
111110010101001000101011101010110101111001100111000011111011100
111110001000111000000011100110010100010110101110000001100011110
111110110011000000001001001011110000101000101010110001000101010
101110001110011001111010110000110110110100111110110001011101111
000000001100010111110101011101100111101010101011010000000001110
011110101111111010001100001100000001011101100100010110111011110
010001100010100000001101010010010010010000111111000110011110010
001100111000110000111101101001011000101001111101011011100110011
100010110010100011011110101001001000100101100011011110101010110
101111000000001011000101010011100001000000111100001011100000000
010110101001111000010110011011110100001101001011011010100001011
110110011001110110101111100110000001101010111001001011010001100
110100100101110000000001011000000001110110000110010011100101000
000111011101110110011111000010011111100010100010000111100101011
101011010111111001001111010011010110100011111111011111100100101
100100100100011011111100100111100100000110101101000011011110101
101001101111100110010100101010110111101001001011110011011010011
101001011110001101001010110001010100101111101111001101001011011
011100001111001010011111000000100110101100011010011111111001100
110011101110101101100000110100111001110011101100011111110101101
101100110000010100011101001010110001110101111001101100010110100
011001111011001010100000000100110010100110010010010111100110001
110101000001011011110110110011100001001000011011110101000000011
000000111000000111010000010110101101111101101101100101010011101
011011100110010011110011000010100101101111101000010010000000101
110000000111100001011010100000000011111111101100110000010100000
001101000011001111101111011110110111111110101011000100001010010
101001111011100101111101000110000101100010000010011100010111110
011100011011001000011101000101000101110000000011101110010010001
110011100011100011011011101001001011000011100010011110111111110
111000101000101100000101011000000100001101110111010000000001011
100100101001110011100110011100111100001011101011101001000000011
110001100010010110110001101011011111001011111111100011010110101
011001101011110001110110010010110110011000111100000101101000000
110101001111110011011010110101011000111110110111101000000110101
100101011100101110000110100000110111110111110100110111000000100
001101011000000010111110101001100100001000010100111111110110010
100111111001111001100111101110111001101111000001101111110000101
100000111100101101001010000001111100011000000110100010010100010
010111010101011000111001011100110100111001001010011011101001111
110010110101101101011101011001000000001100110001010101110001001
100110100110000000000010000110101110010000111010000000100101010
111111000011110111001010011010000011111100110011111011100010110
100010010110111001010011110110100010010101110101011110100111010
000101100110011010110000000000010111011101010110001010110001011
100011000111000011010010110001011000001010111001101010000010011
111011001101000100100100110111111111111100010111001000000001010
100000011000110011011101111011111100101111101010100011110100011
011010101100000110000101111110100001101000110100000000110010100
011101111100001000010100110111010111110001110111000001110110000
110001110111111111100010111010001010010001100010010001001000111
000100100001111000000010101010101011010101010110001101100101000
100111101111111011000001001001010101000100101001010010001101110
001010001101001001010111011111010011100000100101010100001011100
100011111100001100010000000000010100110011011011001001110110000
100110110000011111100110010011001110010001000001111011010101011
101110011101011101111000011110110001111010111100101000111001010
101110111100101011010011110100110101101100010011111010110110100
101111011001000010010110101000000110100000110000100111010110010
010100101101010000000101011001100100011010111011000110110000111
011101000101001011011001010110011100011100110100011000111000000
101011100110000011000001001100000101000110111100110110000011111
111101011001110011001111001111010000001110101111010111100111000
011110111100101001001001010011000110001100010001111011000100010
000111011111110011001000110101110000101010010000100101110101100
000011101000000101111000101001100110001011010110000011011101110
001011110100001110111011011110101110010101001010010001101101101
010111110111011100101101111001010000000111001011110000100101100
011101101100011001000100111010010010100111100100101111001110110
111010110110001111011010111011111110010001110000000111001010111
001101010101001000001000100011001100101101001000000010101110011
011100110000000011111100001110110010100110110001001110101000110
101011010100111111111010100111110100011101011111100010000111111
100011111111010011000111100110011110000101101001111000011011100
010111111100101000011011000100001011011101110101101100001101100
101001101101011111100111101001010001100101000100111110101111101
100101111110111000100101110101011111011000001100011111000110000
000011110000010000101100100011101100001000100100100101110001111
000110000010101100000000000010000010100111001010001101111011001
100100101101111100011010000110101101001010001000011110110110100
101000011010011000010110011011101010111101111111101010010111110
101110100001011110011111110100110111110000000010000000111010011
001000010100000010100110010001000110000010101111001110010000111
011111101101110001110010101000101011001101011100001011101001000
011110000010001001010000001011010100010001111010000000111110010
110110001100101010011010001111100000001101010111011101101111011
110000100100100100100011011110110111001111010010000110111001110
111000010011001110001110101111110101110010001110100010100000011
110011010110010100010001111111110111101011100100000001011111000
101011011110100010000100000100010100000101110011000100010011010
101010000000000010000101100111010111000001010001101110111010011
011010010100010101101101000111101000110010010100001111000111111
001011110111010010110110110001000011100100101111000000111111101
101111010100111010000110000100100011010001111001111000001000010
100001110100010110010100000110100111111001001100010000111000001
110010010001100001001101001001111000010111111111000110010001001
110001110001111111111001111010011011101001001111111000111101100
110111110100010010110010100101000101011101101000000101100000101
011000110111010101000010010111000000010111110011111101001100110
110000011011011011111000100011110000000001011011111101111100011
111000011001101100001111111001011010110000011110010111101011010
110110110000001010110101000100000011011001010101010000111000010
010010100110110011000001000011001101111001010000001011010100110
000100111111101100011011110101110010101011011110101101110111010
011010000101000011011101011110101111111101111001110100110001001
010110001001001001111001011111111010001011110001010011110010010
101000111101011110010001111110110101101111000011100101110110110
010010100011110011100101011010100101001111010101010111110011101
100011011110010000011101000001110000011001010110001100001101101
011111011100000000010000101100011001101101001011001010111100111
001110010011011010001011010001000101100010011001101011010000001
001000111111101011000100010001111101110010001110111000011100111
010001111111010110011000000010001001011111110010011111100001011
110100011001111110010000001010000100110111100010001101110101100
110011111001110100011011101111111001010101110011010000110110100
011011111101001111011011100011000001100111111000101111001101011
100111010101000001011011010100110101011101110000111011010101110
011000101011111110100011100000100101001100100011101010011001100
111011111000011110110010100111010110011010010011011111110011110
000001111011011000001111100101000101000010111000100000010010001
011000001001011101111011111101110111110100011000101100110010010
001011011000001001110011011110000110010100000110010010001001100
101000001101101000110101101110010101011100100001101101000010000
110001000010101001010100000010110110101111001111111011000111000
000111110000010011111101000000110110100100011011111101010010100
001010000001011010101100111011011011001110111000011101101100111
011011000010010100000001011000011111110100011100110000100110111
101100111100110110011111100100111101101011111000010100111011001
010110000011110001101010101000000000001110010001100101110101000
110101010110000010001000001110101100101101101011010111001011001
001010010111110001111001010111100000001101010100010011110010000
011100010000010101111100110111000110000101111101101011111110011
111111000100000011111101000110101001000100111010111100011100111
101000111000101101111000111001111101001100110111010010110010110
111101011011111000100011001101111101011001001101000110100110010
001010110110011000011011101010011110011111011111011000000100111
111111100001101111111010100101110010000001000101001000001110100
011001100111101110100010100001001101100111010001000001100000101
101111111010011011101101100000101111100010011101010000101010010
011100001011001111101000100011011011010101000000110100000000001
101111111110000110100000110101110011110100110101110001001011011
010111010101101101000010101001000000011000111110011010010001101
010111110101111101111100010101110101100111111110001111100011001
000100000001011011001101010011111010000010011101100010100001001
001010001001001111101001110110011010010001110001000110000011100
000110111110100101100000011001110101101011011100000010100101110
110111010100100111110010101010000111000101111000100010000000011
001111011010001111001011110111000100111001101111101000101001000
001100111001011101110011011111000110000000100101010101001100100
000110111010000010110010010011111111001100110110011011100110000
001001100111011010100110101010001100110110111110011000101100011
101011010001111001101000101000101001010001011101100010101000110
001101011111010010010110001011101110000110000001111100010100010
000110100010001110111010010110101110001000011010000100011000000
100101110001100001000001100011101000111111001110111101000110010
011001011001011000000111000011110101000101100011110011101111100
000100001111000010011111110001011100010100000100010101101001111
100101001100101000001001100101010111011010110011100110011101010
100010111100011010001110001010101100100011001000010010000101010
000101001111010100001011010001000100001100110101100101111101100
100011111000001111110100010001000101010101001101100000000101011
000000000101100010010101010101111011000100011111101001001001100
011000010101111011000101101010101110101100110101001100010000111
110101101100111101111101000011101001110100001100001011110000100
111010101101110000101101000000110001011110110110110111110110000
011010010000011111000111011010101010110000000001101101100010001
010001111110110000000110011000001010101000110100001000110101101
101111101001011110001101111011010100100101000010101110000111111
101101010110000100010110110111000001000000110100010000111110111
001100111100010110100110100001000011110010110010000001100110110
110001110000011110101111011100000011001100111100100100101011011
101001110110100101111101101011001110110011000110111010000111100
011111100110010101001011101001101000101000000010001110101011100
010110010101110101110100110001110100010100010110001100010000110
010011000111111100110010000100101010001001010110110000110101000
101000000110000000010001100000001000101100000001010101001110110
101111111111000110001111100000001111111100001100111110001111001
111110001111000101010001110100100010100011011010011100110010100
110100010110101000101111110000101000001101101000110011110100010
010101011101111111111110111000100110100000110101101011100010001
001110110011110100001000001110100110100110101110111101111101101
010111100110101101110011000100010101111111000001010011100111000
010100101100111010110110110010110011101110110011101111010001110
101010001100110101100000010001110101111111001001101000011000010
000010101110010011011111001110100100011110100011110100110000110
010000010110101001001111010010011100111101011010100111011011000
011010010101101110011011101011101011011011011011011110111001011
010100011100100101001100000100100100100100101110111011101110100
100011010110010000111101011010110000101000011100101011011101110
010011011101111111100001011111010100000000110000010000000001111
000000111100010010100101100111101110001100101011001101000010010
101001101110110011001111001010001000000011001111010110110101010
111101001010101111111101011010110000000111000011110111001100010
000011110111011111000001101001010101010111111110011111010011010
000010011001000000100111010101110011100011111000000011101010011
001110001011111001101101101100101100110110110000010100111011100
110110111001011010101000111000110111011011100100001101010101011
010010110110011011101101100101011110010000011111011000001001111
010111010000011101110111011000111001000111100111000101010001100
001010101011111010111100101111000101110101110000010000101010001
010010000010100001000011101001110011000101111110101101000110011
111111110101111000001111100010011101100110110111101011010101101
101001101011010010000110101100001001101101010110010111000110101
001000110101011001010010000100001001001110011001111110101011101
000010000010010001100010100010001110111000000000100000011101111
001100001101110000111111010101111011101010001100011111000101000
111100111000111111110001010110011010010110000100011100011111111
110101000101111011011000111001111011110000100100001001100111110
010011010100111100110001100011100101111111001100011000011000011
100101001000000000010110000101000111111011010000110000010101011
100010100100011000110111100110010100000101100011000110111101111
011100010100111100100011110011001111110001000010110110011101101
000110000111010110000011001110100100000001001110111100111101111
010010001001111011101000011111111110001100101001100100000101100
000101000010011111010011010110010111011001111110010110100101001
110101010101111100000010010011111101010111101001001011010100111
000011100110011101100110110001010001000010111010011100100001000
111011000000011111001001111000111001000010101111010100100000101
111010000111101000001110101001010100010100011100000000010100100
000001100000100111011001111011011100110101011000110110000100111
101101111011000101010111010011100110110100010100010100000101100
001001110000111000010000011000000010110010000100111010101000001
100100110000011010000011011100011110101110010101010101011001100
111110100111110110110100010110000001010011010101101010011110111
111101110011010011111100110011111101010010011110010011011110011
001101010000010001101010101011111110110100000011000110011110110
010101100010111000100100001111101010010001111100110001011001001
101101011001111111010101101000000011000101110110000110001010000
110110010100010000111110100110101101000010100110001101010011110
110011001101110011010000011100001011111111011111001001000001000
011111100110000110100001110111100000111000010010100001110000100
010110010001100100001111100110001110110000011011111101001001111
101000000110010010101111100111010010011100010110111000110000111
110000000110101010111110001011011000100110010110010100110101001
011000000000110111101101101111110011101110001001100101000111000
111010001000011001111011101010010011010001100000111101011001000
010000000100101001111011001000011111100111011111011001001010001
011001001000100111111000101101100111011010010111001101101100101
110100100110101100001001010100001101010001101110100010110001010
000111100111001011100000000000001100000110000110100000010101110
000111101111000001110100010111100011101000001110001101101011001
100001011110000111101001010101010100001011101111001110110101110
100000010100101011011100001110011001111111000111100000101011111
001001100101110011111000111101001100000011000110010011010000101
100110000100010010000100100001010001101110011101101100101001010
001011011001111111010110001100110110010101110000010001010100000
111001001111010100101110111010000000011110110110101100110011100
101000101001010111101100110100001101010010100000011101001100100
110110110010000101000001111110001101111101001010000001000000001
011001101100110110101001111010111100101011101100011100101100100
100010100111001101001011100001111010100100000111010000000110000
101010110101010000011011100011000010001110001100011111110011110
011000000010001100101010111101011001001110101010000011110111011
111100111010110000010010101110010100100101101100011100010110001
010010011011110100010100010010010001111010011100111010111100110
011111101100101111100110111010110010000101001101101001010000011
100100101001000110111100001010110001101011010011111001110010111
011100111101100000011100010001101110101101010001100001000110010
010011001100011101010101110000101000111110011110110110011111101
110001100100101001011000011100110100111010010010000100111100010
010110011110000000111110101111000010001001001100101101110011111
001010010100111111101001010100110101101101001111101100011010001
110110011011110001010011000011001010001001100010010001000111011
011001001101110010001000001110110000001101100001010010001000110
100101010010011000000111111100000011001010001010100110111010110
000101010001000010110101100110010111010110001100100010111011011
100011011110101001001000001111000111000010001101110000101011001
010100010111010011111100110010010010101011111010100100100101000
010110011011011011100100101100011001100011110001010111011000001
011100010111001011100011011000000000100101100111000011011101000
001100110101111011100000000010011001001111011101111010001000111
010000110001000111011101001010000100001010010000010100110000110
101101111100110010000010100111011010011100101000001111100101101
110111100101100110100000001010001100111111100101010000110011000
010000000111101101101000000010101001010101001001100000111101011
110101100101001001110001101101001000000011100100001000000011010
100110010110101101111101001100001000100111010111000001001100000
011101101101110001111010111000100011001000110010110111011011011
001100110100010011000011011101111100101000001010101001010001100
011101011110101001100011110000011110101111101100000110001110100
011111000001110001010101011101111010101001100001110101110001111
010110011011110011101001001000110010110001011010101100010001100
000001001000100001001001111000101101111110111000100101010000110
011101110110110111101011001111010011101100010000100100110110011
111111001010111111010000010101101010111100010110110010100100111
010100110010111011011000110001110111010010100111010101010001111
010111001110101010010010110010101011001110101000111110010010010
000101110000111101101000100111000110001000101101010100011001011
000001010010000010010111010101010111100010010101010000000100011
111000101111011010100101111101100100101000101111001110100000111
011000100001000100100110101001100100101010000011111101001101011
110101111111001110110010111001010111000111011111101011100011100
010100010000101100010100010111010010110011011010111111000010101
010110011101100111001001011111001110110110000010001000111001001
101011010000100110010101110010011001100110001101110001010000110
010101000111000101000110001110001000101000100101110111001111110
100011111110001100101101101111111011101100001001011010000010001
111101000010110100111101101000001110111100000011101001000001001
111111001101111101011101100100010111101010010101001001000010000
000110111010101010100101100000110110011001010010010110000011101
000010010001001000111100000001110001000000011101011011110101010
000001011111011000001111010001110110100110011100100100110110101
101001010110101101101011010101000100111100001110110110001111000
100110111001110001001001111101110011001111100101111010011110110
111000101110111100110110001101110101101111010101010101110110000
110011010011010010001001010100110000100001110010000101011001101
011111110010110110010111000001100010011110110100111011011001010
100111101000011010011101100111000011111111111100000001101111101
