100001001011110011111110000001001100010110111101110010111010000
001000000100110011101100100101101100011011001110101001010100001
011111000001100011011100011001110101111010110010011111011101001
100111110010001001001000101111001101010110100111011100010011100
110010111101010100100110111111011010000000010101100010011011010
100011011110001001001010001100001010001111001001000110110111001
111111110011001001011110110110001101110101000000010100001111000
100110111101100000100101110011011110001110110111001000010100000
101011001000101001011111101100010101100000010000001011111011111
110100000010110011111110010001000001000111011111010001011010011
110001001000010110010000111001011001101011110110110011010010100
000011101111010111011100000110100100101010100101101011111001001
101010110000000010100011010100111100111100010011110001101001101
011010001000010011011011100010000111011100110101001011011011100
111010001100100111110011001111111000111000100110000100110000000
110010100010101110101010001111101000000111100111010110000101110
